{
    "type": "page",
    "id": "/api/v1/web/play/page/sport/cricket",
    "url": "/sport",
    "title": "Cricket",
    "httpHeaders": {
      "Cache-Control": "max-age=0, s-maxage=4"
    },
    "layout": {
      "type": "homepageLayout", 
      "slots": {
        "main": {
          "modules": [
            {
                "type": "featuredContent",
                "id": "/api/v1/web/play/module/featured-content/jcr:%2Fcontent%2Fplay%2Fctf-homepage%2Fsports/jcr:%2Fcontent%2Fplay%2Fctf-homepage%2Fsports%2Fjcr:content%2Fprimary%2Ffeaturedcontent_0",
                "title": "Live & Upcoming",
                "items": [
                  {
                    "type": "content",
                    "href": "/api/v1/play/sport/video/2720397",
                    "labels": null,
                    "link": "/sport/league-name/video-name",
                    "label": null,
                    "analytics": [
                      {
                        "type": "segment-track",
                        "event": "followContentLink",
                        "properties": {
                          "videoId": "ibms+title:10656582"
                        }
                      }
                    ]
                  },
                  {
                      "type": "content",
                      "href": "/api/v1/play/sport/video/2720398",
                      "labels": null,
                      "link": "/sport/league-name-2/video-name",
                      "label": null,
                      "analytics": [
                        {
                          "type": "segment-track",
                          "event": "followContentLink",
                          "properties": {
                            "videoId": "ibms+title:10656583"
                          }
                        }
                      ]
                  },
                  {
                    "type": "content",
                    "href": "/api/v1/play/sport/video/2720399",
                    "labels": null,
                    "link": "/sport/league-name-2/video-name",
                    "label": null,
                    "analytics": [
                      {
                        "type": "segment-track",
                        "event": "followContentLink",
                        "properties": {
                          "videoId": "ibms+title:10656583"
                        }
                      }
                    ]
                },
                 {
                    "type": "content",
                    "href": "/api/v1/play/sport/video/2720400",
                    "labels": null,
                    "link": "/sport/league-name/video-name",
                    "label": null,
                    "analytics": [
                      {
                        "type": "segment-track",
                        "event": "followContentLink",
                        "properties": {
                          "videoId": "ibms+title:10656582"
                        }
                      }
                    ]
                  }
                ],
                "nextPage": "/api/v1/web/play/module/featured-content/jcr:%2Fcontent%2Fplay%2Fctf-homepage%2Fsports/jcr:%2Fcontent%2Fplay%2Fctf-homepage%2Fsports%2Fjcr:content%2Fprimary%2Ffeaturedcontent_0?page=12-%2Fapi%2Fv1%2Fweb%2Fplay%2Fshows%2F190734",
                "tileLayout": "fullWidthLarge",
                "moreLink": null,
                "cover": null,
                "description": null,
                "titleImage": null,
                "_embedded": {}
            },
            {
              "type": "featuredContent",
              "id": "/api/v1/web/play/module/featured-content/jcr:%2Fcontent%2Fplay%2Fctf-homepage%2Fsports/jcr:%2Fcontent%2Fplay%2Fctf-homepage%2Fsports%2Fjcr:content%2Fprimary%2Ffeaturedcontent_0",
              "title": "Blackcaps Cricket Videos",
              "items": [
                {
                  "type": "content",
                  "href": "/api/v1/play/sport/video/2720397",
                  "labels": null,
                  "link": "/sport/league-name/video-name",
                  "label": null,
                  "analytics": [
                    {
                      "type": "segment-track",
                      "event": "followContentLink",
                      "properties": {
                        "videoId": "ibms+title:10656582"
                      }
                    }
                  ]
                },
                {
                    "type": "content",
                    "href": "/api/v1/play/sport/video/2720398",
                    "labels": null,
                    "link": "/sport/league-name-2/video-name",
                    "label": null,
                    "analytics": [
                      {
                        "type": "segment-track",
                        "event": "followContentLink",
                        "properties": {
                          "videoId": "ibms+title:10656583"
                        }
                      }
                    ]
                }
              ],
              "nextPage": "/api/v1/web/play/module/featured-content/jcr:%2Fcontent%2Fplay%2Fctf-homepage%2Fsports/jcr:%2Fcontent%2Fplay%2Fctf-homepage%2Fsports%2Fjcr:content%2Fprimary%2Ffeaturedcontent_0?page=12-%2Fapi%2Fv1%2Fweb%2Fplay%2Fshows%2F190734",
              "tileLayout": "fullWidthMedium",
              "moreLink": null,
              "cover": null,
              "description": null,
              "titleImage": null,
              "_embedded": {}
            },
            {
              "type": "featuredContent",
              "id": "/api/v1/web/play/module/featured-content/jcr:%2Fcontent%2Fplay%2Fctf-homepage%2Fsports/jcr:%2Fcontent%2Fplay%2Fctf-homepage%2Fsports%2Fjcr:content%2Fprimary%2Ffeaturedcontent_2",
              "title": "ECB  Videos",
              "items": [
                {
                    "type": "content",
                    "href": "/api/v1/play/sport/video/2720397",
                    "labels": null,
                    "link": "/sport/league-name-3/video-name",
                    "label": null,
                    "analytics": [
                      {
                        "type": "segment-track",
                        "event": "followContentLink",
                        "properties": {
                          "videoId": "ibms+title:10656582"
                        }
                      }
                    ]
                  },
                  {
                      "type": "content",
                      "href": "/api/v1/play/sport/video/2720398",
                      "labels": null,
                      "link": "/sport/league-name-4/video-name",
                      "label": null,
                      "analytics": [
                        {
                          "type": "segment-track",
                          "event": "followContentLink",
                          "properties": {
                            "videoId": "ibms+title:10656583"
                          }
                        }
                      ]
                  }
              ],
              "nextPage": "/api/v1/web/play/module/featured-content/jcr:%2Fcontent%2Fplay%2Fctf-homepage%2Fsports/jcr:%2Fcontent%2Fplay%2Fctf-homepage%2Fsports%2Fjcr:content%2Fprimary%2Ffeaturedcontent_2?page=12-%2Fapi%2Fv1%2Fweb%2Fplay%2Fshows%2F190684",
              "tileLayout": "fullWidthMedium",
              "moreLink": null,
              "cover": null,
              "description": null,
              "titleImage": null,
              "_embedded": {}
            }
          ],
          "groupings": [
            [
              0,
              1
            ],
            [
              1,
              1
            ],
            [
              2,
              1
            ]
          ],
          "analytics": [
            {
              "type": "segment-track",
              "event": "followContentLink",
              "properties": {
                "slotName": "main"
              }
            }
          ]
        },
        "hero": {
          "modules": [
            {
              "type": "heroTileV2",
              "id": "/api/v1/web/play/module/heroTileV2/jcr:%2Fcontent%2Fplay%2Fctf-homepage%2Fsports/jcr:%2Fcontent%2Fplay%2Fctf-homepage%2Fsports%2Fjcr:content%2Fhero",
              "items" :[
                {
                    "type": "content",
                    "href": "/api/v1/play/sport/video/2720397",
                    "labels": null,
                    "link": "/sport/league-name/video-name",
                    "label": null,
                    "analytics": [
                      {
                        "type": "segment-track",
                        "event": "followContentLink",
                        "properties": {
                          "videoId": "ibms+title:10656582"
                        }
                      }
                    ]
                  }
              ],
              "analytics": [
                {
                  "type": "segment-track",
                  "event": "followContentLink",
                  "properties": {
                    "moduleName": "Top Picks",
                    "modulePosition": "$module.position",
                    "itemPosition": "$item.position"
                  }
                },
                {
                  "type": "segment-track",
                  "event": "Scroll",
                  "properties": {
                    "moduleName": "Top Picks",
                    "layoutType": "$layoutType",
                    "category": "module_interactions"
                  }
                },
                {
                  "type": "segment-track",
                  "event": "ScrollToEnd",
                  "properties": {
                    "moduleName": "Top Picks",
                    "layoutType": "$layoutType",
                    "category": "module_interactions"
                  }
                },
                {
                  "type": "segment-track",
                  "event": "ScrollJumpRight",
                  "properties": {
                    "moduleName": "Top Picks",
                    "layoutType": "$layoutType",
                    "category": "module_interactions"
                  }
                },
                {
                  "type": "segment-track",
                  "event": "ScrollJumpLeft",
                  "properties": {
                    "moduleName": "Top Picks",
                    "layoutType": "$layoutType",
                    "category": "module_interactions"
                  }
                }
              ]
            }
          ],
          "groupings": [
            [
              0,
              1
            ],
            [
              1,
              1
            ]
          ],
          "analytics": [
            {
              "type": "segment-track",
              "event": "followContentLink",
              "properties": {
                "slotName": "hero"
              }
            }
          ]
        },
        "above": {
          "modules": [],
          "groupings": [],
          "analytics": []
        },
        "below": {          
        }
      },
      "pageHref": "/api/v1/web/play/homepages/%2Fcontent%2Fplay%2Fctf-homepage%2Fsports",
      "analytics": [
        {
          "type": "segment-track",
          "event": "followContentLink",
          "properties": {
            "layoutType": "sportsHubLayout"
          }
        }
      ]
    },
    "metadata": {
      "title": "Watch Shows, Movies & Live TV | Stream On | TVNZ+",
      "siteName": "TVNZ",
      "description": "Watch free movies & TV shows & Live TV online. Enjoy local, international and popular entertainment. Stream to your smart TV, game console, PC, Mac, mobile, tablet.",
      "image": null,
      "keywords": "feature-toggle:play-content-targeted-homepage",
      "author": "Television New Zealand",
      "twitterCard": "summary_large_image",
      "twitterSite": "@TVNZondemand",
      "twitterCreator": "@TVNZondemand",
      "appleItunesApp": "app-id=592636641",
      "googlePlayApp": "app-id=nz.co.tvnz.ondemand.phone.android",
      "canonicalUrl": null
    },
    "advertising": {
      "adUnitPath": "/4180/od/homepage",
      "targeting": {
        "site": "tv",
        "endpoint": "web",
        "pt": "indexpage",
        "sectn": "home",
        "endpoint_detail": "desktop",
        "endpoint-group": "desktop"
      }
    },
    "analytics": [
      {
        "type": "segment-page",
        "properties": {
          "loggedInStatus": "Not Logged",
          "endpoint": "web",
          "environment": "prod",
          "endpointDetail": "desktop",
          "pageType": "tvnzhome"
        }
      },
      {
        "type": "segment-track",
        "event": "followContentLink",
        "properties": {
          "loggedInStatus": "Not Logged",
          "endpoint": "web",
          "environment": "prod",
          "endpointDetail": "desktop",
          "pageType": "tvnzhome",
          "category": "module_interactions",
          "path": "/",
          "layoutType": "homepageLayout"
        }
      },
      {
        "type": "ga-send-social",
        "dimensions": {
          "11": "Not Logged",
          "18": "web",
          "19": "desktop",
          "21": "prod"
        }
      }
    ],
    "dataLayer": {
      "showName": "",
      "genre": "",
      "event": "Virtual Page View",
      "pageName": "Watch Shows, Movies & Live TV | Stream On | TVNZ+"
    },
    "breadcrumbs": [],
    "structuredData": [
      {
        "@id": "https://www.tvnz.co.nz/",
        "name": "TVNZ",
        "alternateName": "Television New Zealand",
        "@type": "WebPage",
        "@context": "http://schema.org"
      },
      {
        "name": "TVNZ",
        "logo": {
          "url": "https://www.tvnz.co.nz/etc/designs/tvnz-licensing/images/tvnz-sales-logo-white-masterbrand.png",
          "height": 75,
          "width": 72,
          "@type": "ImageObject",
          "@context": "http://schema.org"
        },
        "sameAs": [
          "https://www.facebook.com/TVNZOnDemand/",
          "https://twitter.com/TVNZondemand",
          "https://www.instagram.com/tvnz.ondemand/",
          "https://www.youtube.com/user/TVNewZealand"
        ],
        "url": "https://www.tvnz.co.nz/",
        "@type": "Organization",
        "@context": "http://schema.org"
      }
    ],
    "_embedded": {
        "/api/v1/play/sport/video/2720397": {
            "type": "sportVideo",
            "id": "/api/v1/web/play/video/2720397",
            "title": "England vs Australia Test Match",
            "shortTitle": "ECB Test Cricket: 2nd Test",
            "phase": "Day 4",
            "details": "Live coverage of the 4th day with commentary",
            "description": "Watch Day 4 of the second test match. England hoping to win the series with this decider..",
            "classification": "G",
            "page": {
                "url": "/sport/league-name/national-s-proposed-childcare-rebate-a-huge-relief-to-parents-early-childhood-provider",
                "href": "/api/v1/web/play/page/shows/breakfast/clips/national-s-proposed-childcare-rebate-a-huge-relief-to-parents-early-childhood-provider"
            },
            "competitionHref" : "/api/v1/web/sport/cricket/eng-vs-aus-test-2023",
            "playbackHref" : "/api/v1/web/play/video/playback/2721683",
            "videoType":"LIVE",
            "onTime" : "2023-03-15T12:00:00+13:00",
            "offTime" : "2023-06-15T12:00:00+13:00",
            "media": [
                {
                    "source": "mediakind",
                    "id": "424252353464",
                    "coverageStartTime": "2023-04-14T15:00:00+13:00",
                    "coverageEndTime" : "2023-04-14T18:15:00+13:00"
                }
            ],
            "images": [
                {
                "type": "cover",
                "src": "https://i.ibb.co/SNJWTsj/mobile-hero.png"
                },
                {
                "type": "tile",
                "src": "https://i.ibb.co/2Y8pP60/sport-tile.png"
                },
                {
                "type": "logo",
                "src": "https://example.com/images/eng-vs-aus-test-day1/logo.png"
                }
            ]
        },
         "/api/v1/play/sport/video/2720400": {
            "type": "sportVideo",
            "id": "/api/v1/web/play/video/2720400",
            "title": "England vs NZ",
            "shortTitle": "ECB 1 Day Cricket",
            "phase": "Day 4",
            "details": null,
            "description": "Watch one day cricket NZ vs England",
            "classification": "G",
            "page": {
                "url": "/sport/league-name/national-s-proposed-childcare-rebate-a-huge-relief-to-parents-early-childhood-provider",
                "href": "/api/v1/web/play/page/shows/breakfast/clips/national-s-proposed-childcare-rebate-a-huge-relief-to-parents-early-childhood-provider"
            },
            "competitionHref" : "/api/v1/web/sport/cricket/eng-vs-aus-test-2023",
            "playbackHref" : "/api/v1/web/play/video/playback/2721683",
            "videoType":"LIVE",
            "onTime" : "2023-03-15T10:00:00+13:00",
            "offTime" : "2023-06-16T12:00:00+13:00",
            "media": [
                {
                    "source": "mediakind",
                    "id": "424252353464",
                    "coverageStartTime": "2023-04-30T10:15:00+13:00",
                    "coverageEndTime" : "2023-04-30T20:00:00+13:00"
                }
            ],
            "images": [
                {
                "type": "cover",
                "src": "https://i.ibb.co/SNJWTsj/mobile-hero.png"
                },
                {
                "type": "tile",
                "src": "https://i.ibb.co/2Y8pP60/sport-tile.png"
                },
                {
                "type": "logo",
                "src": "https://example.com/images/eng-vs-aus-test-day1/logo.png"
                }
            ]
        },
        "/api/v1/play/sport/video/2720398": {
          "type": "sportVideo",
          "id": "/api/v1/web/play/video/2720398",
          "title": "England vs Australia Test Match",
          "shortTitle": "ECB Test Cricket: 2nd Test",
          "phase": "Day 3",
          "details": "match replay",
          "description": "Watch Day 3 of the second test match. England hoping to win the series with this decider..",
          "classification": "G",
          "page": {
              "url": "/sport/league-name/national-s-proposed-childcare-rebate-a-huge-relief-to-parents-early-childhood-provider",
              "href": "/api/v1/web/play/page/shows/breakfast/clips/national-s-proposed-childcare-rebate-a-huge-relief-to-parents-early-childhood-provider"
          },
          "competitionHref" : "/api/v1/web/sport/cricket/eng-vs-aus-test-2023",
          "playbackHref" : "/api/v1/web/play/video/playback/2721683",
          "videoType":"REPLAY",
          "onTime" : "2023-03-15T12:00:00+13:00",
          "offTime" : "2023-04-05T12:00:00+13:00",
          "media": [
            {
              "source": "brightcove",
              "id": "9356353921023",
              "publishedDateTime": "2023-03-15T20:00:00+13:00",
              "duration" : "PT21M48.736S"
            }
          ],
          "images": [
              {
              "type": "cover",
              "src": "https://i.ibb.co/SNJWTsj/mobile-hero.png"
              },
              {
              "type": "tile",
              "src": "https://i.ibb.co/2Y8pP60/sport-tile.png"
              },
              {
              "type": "logo",
              "src": "https://example.com/images/eng-vs-aus-test-day1/logo.png"
              }
          ]
      },
      "/api/v1/play/sport/video/2720399": {
        "type": "sportVideo",
        "id": "/api/v1/web/play/video/2720399",
        "title": "England vs Australia Test Match",
        "shortTitle": "ECB Test Cricket: 2nd Test",
        "phase": "Day 2",
        "details": "directors cut",
        "description": "Watch Day 2 of the second test match. England hoping to win the series with this decider..",
        "classification": "G",
        "page": {
            "url": "/sport/league-name/national-s-proposed-childcare-rebate-a-huge-relief-to-parents-early-childhood-provider",
            "href": "/api/v1/web/play/page/shows/breakfast/clips/national-s-proposed-childcare-rebate-a-huge-relief-to-parents-early-childhood-provider"
        },
        "competitionHref" : "/api/v1/web/sport/cricket/eng-vs-aus-test-2023",
        "playbackHref" : "/api/v1/web/play/video/playback/2721683",
        "videoType":"HIGHLIGHT",
         "onTime" : "2023-03-20T12:00:00+13:00",
        "offTime" : "2023-06-15T12:00:00+13:00",
        "media": [
          {
            "type": "vod",
            "source": "brightcove",
            "id": "9356353921023",
            "publishedDateTime": "2023-03-25T09:00:00+13:00",
            "duration" : "PT21M48.736S"
          }
        ],
        "images": [
            {
            "type": "cover",
            "src": "https://i.ibb.co/SNJWTsj/mobile-hero.png"
            },
            {
            "type": "tile",
            "src": "https://i.ibb.co/2Y8pP60/sport-tile.png"
            },
            {
            "type": "logo",
            "src": "https://example.com/images/eng-vs-aus-test-day1/logo.png"
            }
        ]
    },
        "/api/v1/web/sport/cricket/eng-vs-aus-test-2023": {
            "type" : "competition",
            "name": "Eng vs Aus Test 2023",
            "title": "England vs Australia Test Match Series 2023",
            "page": {
                "url": "/sport/cricket/eng-vs-aus-test-2023",
                "href": "/api/v1/web/play/page/sport/cricket/eng-vs-aus-test-2023"
            },
            "images": [
            {
                "type": "cover",
                "src": "https://i.ibb.co/SNJWTsj/mobile-hero.png"
            },
            {
                "type": "tile",
                "src": "https://i.ibb.co/2Y8pP60/sport-tile.png"
            },
            {
                "type": "logo",
                "src": "https://example.com/images/eng-vs-aus-test/logo.png"
            }
            ],
            "sportHref" : "/api/v1/web/sport/cricket"
        },
        "/api/v1/web/sport/cricket": {
            "type" : "sport",
            "title": "Cricket",
            "page": {
                "url": "/sport/cricket",
                "href": "/api/v1/web/play/page/sport/cricket"
            },
            "images": [
                {
                "type": "cover",
                "src": "https://i.ibb.co/SNJWTsj/mobile-hero.png"
                },
                {
                "type": "tile",
                "src": "https://i.ibb.co/2Y8pP60/sport-tile.png"
                },
                {
                "type": "logo",
                "src": "https://example.com/images/cricket/logo.png"
                }
            ]
        }
    }
}