{
"type": "page",
"id": "/api/v2/tvos/play/page/shows/rupauls-drag-race-uk/episodes/s1-e1",
"url": "/shows/rupauls-drag-race-uk/episodes/s1-e1",
"title": "RuPaul's Drag Race UK Episodes",
"httpHeaders": { "Cache-Control": "max-age=0, s-maxage=10" },
"layout": {
    "type": "bigScreenPlayerPageLayout",
    "slots": {
        "main": {
        "modules": [ ],
        "groupings": [ ],
        "analytics": [ ],
        },
    "shelf": {
    "modules": [
        {
        "type": "featuredContent",
        "id": "/api/v1/tvos/play/module/shelf-watch-next/featured-content/2308702",
        "title": "Next episode of RuPaul's Drag Race UK",
        "items": [
        {
        "type": "content",
        "href": "/api/v1/tvos/play/video/2308703",
        "labels": null,
        "link": null,
        "label": null,
        "analytics": [ ],
        },
    ],
    "suppressedBadges": [ ],
    "analytics": [ ],
    "nextPage": "/api/v1/tvos/play/module/shelf-watch-next/featured-content/2308702?page=5-2494159",
    "tileLayout": "fullWidth",
    }
    ],
    },
},
"video": {
    "type": "showVideoPlayer",
    "href": "/api/v1/tvos/play/video/2308702",
    "deepLinkPath": "/video/content/tvnz/ondemand/shows/r/rupauls-drag-race-uk/s1/e1",
    "playerSkin": {
    "type": "thirdPartyAdvert",
    "tileLayout": "fullWidth",
    "advertising": null,
    },
    "sponsorBannerAdvert": {
    "type": "thirdPartyAdvert",
    "tileLayout": "fullWidth",
    "advertising": null,
    },
    "videoCompanionAdvert": {
    "type": "thirdPartyAdvert",
    "tileLayout": "fullWidth",
    "advertising": {
    "adUnitPath": null,
    "targeting": {
    "dur": "90",
    "rating": "16l",
    "ep": "s1-ep1-video-2308702",
    "ibms-title-id": "10564734",
    "vm": "catchup",
    },
    },
    },
    "videoPauseAdvert": {
    "type": "thirdPartyAdvert",
    "tileLayout": "fullWidth",
    "advertising": {
    "adUnitPath": "/4180/od-test_ssai/passion/rupauls-drag-race-uk/s1-ep1",
    "targeting": {
    "pt": "videopage",
    "dist": "passion",
    "type": "ep",
    "endpoint_detail": "appletv",
    "prog": "rupauls-drag-race-uk",
    "endpoint-group": "bigscreen",
    "pub_age": "older",
    "site": "tv",
    "endpoint": "ios",
    "endpoint-detail": "appletv",
    "genre": "reality",
    "chanl": "tvnz-online",
    },
    },
    },
    "maskPreRoll": false,
    "maskMidRoll": false,
    "enableAdvertising": true,
    "watchNext": {
    "type": "content",
    "href": "/api/v1/tvos/play/video/2308703",
    "labels": {
    "primary": "Watch next",
    "secondary": "${show.title}",
    "tertiary": "Season ${video.seasonNumber}, Episode ${video.episodeNumber}",
    },
    "link": null,
    "label": null,
    "analytics": [ ],
    },
    "advertising": {
    "adConfigId": "3a45cf2c-e24f-4c0d-8f10-d5a1cfb7a726",
    "ssaiParams": "slotname=%2F4180%2Fod-test_ssai%2Fpassion%2Frupauls-drag-race-uk%2Fs1-ep1&vid=6132807187001&cmsid=396&cust_params=dur%253D90%2526pt%253Dvideopage%2526rating%253D16l%2526dist%253Dpassion%2526ep%253Ds1-ep1-video-2308702%2526type%253Dep%2526endpoint_detail%253Dappletv%2526prog%253Drupauls-drag-race-uk%2526endpoint-group%253Dbigscreen%2526pub_age%253Dolder%2526site%253Dtv%2526endpoint%253Dios%2526ibms-title-id%253D10564734%2526endpoint-detail%253Dappletv%2526vm%253Dcatchup%2526genre%253Dreality%2526chanl%253Dtvnz-online",
    "adServerUrl": "http://pubads.g.doubleclick.net/gampad/ads?ad_rule=1&gdfp_req=1&output=xml_vmap1&impl=s&unviewed_position_start=1&env=vp&hl=en&sz=640x480&iu=%2F4180%2Fod-test_ssai%2Fpassion%2Frupauls-drag-race-uk%2Fs1-ep1&vid=6132807187001&cmsid=396&cust_params=dur%3D90%26pt%3Dvideopage%26rating%3D16l%26dist%3Dpassion%26ep%3Ds1-ep1-video-2308702%26type%3Dep%26endpoint_detail%3Dappletv%26prog%3Drupauls-drag-race-uk%26endpoint-group%3Dbigscreen%26pub_age%3Dolder%26site%3Dtv%26endpoint%3Dios%26ibms-title-id%3D10564734%26endpoint-detail%3Dappletv%26vm%3Dcatchup%26genre%3Dreality%26chanl%3Dtvnz-online",
    "adConfig": {
    "default": "3a45cf2c-e24f-4c0d-8f10-d5a1cfb7a726"
    },
    },
    "backgroundImage": null,
    "available": true,
    "unavailableMessage": null,
    "unavailableCallToAction": null,
    "popupHref": null,
    "playersHref": "/api/v1/tvos/brightcove/accounts/963482467001/players?capability=VOD&capability=DRM",
    },
}
}