{
  "type": "show",
  "id": "/api/v1/tvos/play/shows/171820",
  "title": "House Hunt",
  "synopsis": "Is owning a home in New Zealand still a reality? House Hunt explores the emotional journey of buying property. Made with the support of NZ on Air. ",
  "searchDescription": "10 Episodes Available",
  "page": {
    "url": "/shows/house-hunt",
    "href": "/api/v1/tvos/play/page/shows/house-hunt"
  },
  "showId": "171820",
  "preferencesHref": "/api/v1/tvos/play/shows/171820/preferences",
  "badge": {
    "label": "Full Season",
    "name": "BOX_SET"
  },
  "availability": "Full season",
  "episodesAvailable": 10,
  "seasonsAvailable": 0,
  "newEpisodesAvailable": 0,
  "episodesExpiringSoon": 0,
  "videosAvailable": 10,
  "coverImage": {
    "src": "https://play-images-stage-cms.tech-preprod.tvnz.co.nz/api/v1/web/image/content/dam/images/entertainment/shows/h/house-hunt/HouseHunt_coverimg.png.2020-03-04T03:05:28+13:00.jpg",
    "type": "legacy",
    "hash": "2020-03-04T03:05:28+13:00",
    "extension": "jpg",
    "alt": null,
    "aspectRatio": {
      "x": 3,
      "y": 1
    }
  },
  "tileImage": {
    "src": "https://play-images-stage-cms.tech-preprod.tvnz.co.nz/api/v1/web/image/content/dam/images/entertainment/shows/h/house-hunt/HouseHunt_showtile.png.2020-03-04T03:05:28+13:00.jpg",
    "type": "legacy",
    "hash": "2020-03-04T03:05:28+13:00",
    "extension": "jpg",
    "alt": null,
    "aspectRatio": {
      "x": 16,
      "y": 9
    }
  },
  "logoImage": null,
  "distributorImage": null,
  "secondarySponsors": [],
  "primarySponsors": [],
  "tertiarySponsors": [],
  "socialList": [],
  "categories": [
    {
      "type": "content",
      "href": "/api/v1/tvos/play/categories/local",
      "labels": null,
      "link": "/categories/local",
      "label": "Local",
      "analytics": [
        {
          "type": "segment-track",
          "event": "followContentLink",
          "properties": {
            "categoryName": "local"
          }
        }
      ]
    },
    {
      "type": "content",
      "href": "/api/v1/tvos/play/categories/factual",
      "labels": null,
      "link": "/categories/factual",
      "label": "Documentary & Factual",
      "analytics": [
        {
          "type": "segment-track",
          "event": "followContentLink",
          "properties": {
            "categoryName": "factual"
          }
        }
      ]
    },
    {
      "type": "content",
      "href": "/api/v1/tvos/play/categories/tvnz-1",
      "labels": null,
      "link": "/categories/tvnz-1",
      "label": "TVNZ 1",
      "analytics": [
        {
          "type": "segment-track",
          "event": "followContentLink",
          "properties": {
            "categoryName": "tvnz-1"
          }
        }
      ]
    },
    {
      "type": "content",
      "href": "/api/v1/tvos/play/categories/full-seasons",
      "labels": null,
      "link": "/categories/full-seasons",
      "label": "Full Seasons",
      "analytics": [
        {
          "type": "segment-track",
          "event": "followContentLink",
          "properties": {
            "categoryName": "full-seasons"
          }
        }
      ]
    }
  ],
  "moods": [],
  "descriptiveCategories": [
    "/api/v1/tvos/play/categories/local",
    "/api/v1/tvos/play/categories/factual"
  ],
  "watchAction": {
    "type": "smartWatchAction",
    "link": "/shows/house-hunt/episodes/s1-e1",
    "videoHref": "/api/v1/tvos/play/video/2460884",
    "action": "WATCH_FIRST",
    "actionLabel": "Watch First",
    "videoLabel": null,
    "analytics": [
      {
        "type": "segment-track",
        "event": "followContentLink",
        "properties": {
          "videoID": "ibms+title:10390761"
        }
      }
    ],
    "label": "Watch First"
  },
  "trailersAction": null,
  "_embedded": {
    "/api/v1/tvos/play/categories/factual": {
      "type": "category",
      "id": "/api/v1/tvos/play/categories/factual",
      "title": "Documentary & Factual",
      "synopsis": "Discover and watch new stories framed by real people, places, and events with our OnDemand documentaries and factual shows.",
      "searchDescription": null,
      "page": {
        "url": "/categories/factual",
        "href": "/api/v1/tvos/play/page/categories/factual"
      },
      "cover": {
        "label": null,
        "coverImage": null,
        "washImage": {
          "src": "https://play-images-stage-cms.tech-preprod.tvnz.co.nz/api/v1/web/image/content/dam/images/entertainment/channels/Blue_Background_16x9.png.2020-02-23T03:25:41+13:00.png",
          "type": "legacy",
          "hash": "2020-02-23T03:25:41+13:00",
          "extension": "png",
          "alt": "Blue_Background",
          "aspectRatio": {
            "x": 4200,
            "y": 2363
          }
        },
        "washOverlay": null,
        "washStartColour": null,
        "washFadeColour": null,
        "textAltColour": false,
        "fadeOutCoverImage": false,
        "fillColour": null
      },
      "tileImage": {
        "src": "https://play-images-stage-cms.tech-preprod.tvnz.co.nz/api/v1/web/image/content/dam/images/entertainment/Categories/category-tile-documentary.png.2020-02-23T03:25:16+13:00.jpg",
        "type": "legacy",
        "hash": "2020-02-23T03:25:16+13:00",
        "extension": "jpg",
        "alt": "TVNZ Documentary Category",
        "aspectRatio": {
          "x": 16,
          "y": 9
        }
      },
      "logo": null,
      "primarySponsor": null
    },
    "/api/v1/tvos/play/categories/local": {
      "type": "category",
      "id": "/api/v1/tvos/play/categories/local",
      "title": "Local",
      "synopsis": "We are a country filled with extraordinary voices. From real life to drama, news to kids content - with a wide variety of homegrown content from our storytellers at your fingertips, watch our stories come to life. ",
      "searchDescription": null,
      "page": {
        "url": "/categories/local",
        "href": "/api/v1/tvos/play/page/categories/local"
      },
      "cover": {
        "label": null,
        "coverImage": null,
        "washImage": {
          "src": "https://play-images-stage-cms.tech-preprod.tvnz.co.nz/api/v1/web/image/content/dam/images/entertainment/channels/Blue_Background_16x9.png.2020-02-23T03:25:41+13:00.png",
          "type": "legacy",
          "hash": "2020-02-23T03:25:41+13:00",
          "extension": "png",
          "alt": "Blue_Background",
          "aspectRatio": {
            "x": 4200,
            "y": 2363
          }
        },
        "washOverlay": null,
        "washStartColour": null,
        "washFadeColour": null,
        "textAltColour": false,
        "fadeOutCoverImage": false,
        "fillColour": null
      },
      "tileImage": {
        "src": "https://play-images-stage-cms.tech-preprod.tvnz.co.nz/api/v1/web/image/content/dam/images/entertainment/Categories/category-tile-local.png.2020-02-23T03:25:20+13:00.jpg",
        "type": "legacy",
        "hash": "2020-02-23T03:25:20+13:00",
        "extension": "jpg",
        "alt": "TVNZ Local Category",
        "aspectRatio": {
          "x": 16,
          "y": 9
        }
      },
      "logo": null,
      "primarySponsor": null
    }
  },
  "preferences": {
    "isFavorite": false
  }
}
